<?xml version="1.0" encoding="UTF-8" standalone="no"?>
<svg
   xmlns:dc="http://purl.org/dc/elements/1.1/"
   xmlns:cc="http://creativecommons.org/ns#"
   xmlns:rdf="http://www.w3.org/1999/02/22-rdf-syntax-ns#"
   xmlns:svg="http://www.w3.org/2000/svg"
   xmlns="http://www.w3.org/2000/svg"
   xmlns:sodipodi="http://sodipodi.sourceforge.net/DTD/sodipodi-0.dtd"
   xmlns:inkscape="http://www.inkscape.org/namespaces/inkscape"
   width="36"
   height="36"
   viewBox="0 0 36 36"
   version="1.1"
   id="svg8"
   sodipodi:docname="window-close-active.svg"
   inkscape:version="0.92.4 (unknown)">
  <metadata
     id="metadata14">
    <rdf:RDF>
      <cc:Work
         rdf:about="">
        <dc:format>image/svg+xml</dc:format>
        <dc:type
           rdf:resource="http://purl.org/dc/dcmitype/StillImage" />
        <dc:title />
      </cc:Work>
    </rdf:RDF>
  </metadata>
  <defs
     id="defs12" />
  <sodipodi:namedview
     pagecolor="#ffffff"
     bordercolor="#666666"
     borderopacity="1"
     objecttolerance="10"
     gridtolerance="10"
     guidetolerance="10"
     inkscape:pageopacity="0"
     inkscape:pageshadow="2"
     inkscape:window-width="1366"
     inkscape:window-height="713"
     id="namedview10"
     showgrid="false"
     inkscape:zoom="17.416667"
     inkscape:cx="7.6076557"
     inkscape:cy="18"
     inkscape:window-x="0"
     inkscape:window-y="27"
     inkscape:window-maximized="1"
     inkscape:current-layer="svg8" />
  <circle
     cx="18"
     cy="18"
     r="18"
     fill="#FF5252"
     id="circle2"
     style="fill:#8b8b8b;fill-opacity:1;opacity:0.99999999" />
  <circle
     cx="18"
     cy="18"
     r="18"
     fill="#FFFFFF"
     opacity="0"
     id="circle4" />
  <path
     d="M 23,14.41 21.59,13 18,16.59 14.41,13 13,14.41 16.59,18 13,21.59 14.41,23 18,19.41 21.59,23 23,21.59 19.41,18 Z"
     fill="#FFFFFF"
     id="path6"
     style="fill:#fefefe;fill-opacity:1;opacity:1" />
</svg>
